<?xml version="1.0" encoding="UTF-8"?>
<kml xmlns="http://www.opengis.net/kml/2.2" xmlns:gx="http://www.google.com/kml/ext/2.2" xmlns:kml="http://www.opengis.net/kml/2.2" xmlns:atom="http://www.w3.org/2005/Atom">
<Document>
<name>Location history from 05/26/2014 to 05/27/2014</name>
<open>1</open>
<description/>
<StyleMap id="multiTrack">
<Pair>
<key>normal</key>
<styleUrl>#multiTrack_n</styleUrl>
</Pair>
<Pair>
<key>highlight</key>
<styleUrl>#multiTrack_h</styleUrl>
</Pair>
</StyleMap>
<Style id="multiTrack_n">
<IconStyle>
<Icon>
<href>http://earth.google.com/images/kml-icons/track-directional/track-0.png</href>
</Icon>
</IconStyle>
<LineStyle>
<color>99ffac59</color>
<width>6</width>
</LineStyle>
</Style>
<Style id="multiTrack_h">
<IconStyle>
<scale>1.2</scale>
<Icon>
<href>http://earth.google.com/images/kml-icons/track-directional/track-0.png</href>
</Icon>
</IconStyle>
<LineStyle>
<color>99ffac59</color>
<width>8</width>
</LineStyle>
</Style>
<Placemark>
<name>Latitude User</name>
<description>Location history for Latitude User from 05/26/2014 to 05/27/2014</description>
<styleUrl>#multiTrack</styleUrl>
<gx:Track>
<altitudeMode>clampToGround</altitudeMode>
<when>2014-05-26T00:03:32.591-07:00</when>
<gx:coord>-118.3621811 34.0697339 0</gx:coord>
<when>2014-05-26T00:08:42.088-07:00</when>
<gx:coord>-118.3621795 34.0697348 0</gx:coord>
<when>2014-05-26T00:15:02.096-07:00</when>
<gx:coord>-118.3621818 34.0697317 0</gx:coord>
<when>2014-05-26T00:20:02.095-07:00</when>
<gx:coord>-118.3621891 34.0697447 0</gx:coord>
<when>2014-05-26T00:26:02.119-07:00</when>
<gx:coord>-118.3622035 34.0697161 0</gx:coord>
<when>2014-05-26T00:31:01.493-07:00</when>
<gx:coord>-118.3621604 34.0697551 0</gx:coord>
<when>2014-05-26T00:35:50.187-07:00</when>
<gx:coord>-118.362186 34.0697316 0</gx:coord>
<when>2014-05-26T00:40:35.182-07:00</when>
<gx:coord>-118.3621834 34.0697316 0</gx:coord>
<when>2014-05-26T00:46:03.060-07:00</when>
<gx:coord>-118.3621903 34.0697438 0</gx:coord>
<when>2014-05-26T00:52:37.362-07:00</when>
<gx:coord>-118.3621936 34.0697357 0</gx:coord>
<when>2014-05-26T00:56:03.710-07:00</when>
<gx:coord>-118.3621846 34.0697314 0</gx:coord>
<when>2014-05-26T01:01:04.317-07:00</when>
<gx:coord>-118.3621806 34.0697262 0</gx:coord>
<when>2014-05-26T01:06:04.072-07:00</when>
<gx:coord>-118.3621808 34.0697241 0</gx:coord>
<when>2014-05-26T01:10:49.098-07:00</when>
<gx:coord>-118.3621815 34.0697239 0</gx:coord>
<when>2014-05-26T01:16:05.085-07:00</when>
<gx:coord>-118.3621587 34.0697531 0</gx:coord>
<when>2014-05-26T01:23:42.105-07:00</when>
<gx:coord>-118.3621576 34.0697465 0</gx:coord>
<when>2014-05-26T01:25:14.350-07:00</when>
<gx:coord>-118.3621598 34.0697525 0</gx:coord>
<when>2014-05-26T01:30:03.060-07:00</when>
<gx:coord>-118.3621595 34.069759 0</gx:coord>
<when>2014-05-26T01:36:06.067-07:00</when>
<gx:coord>-118.3621916 34.0697299 0</gx:coord>
<when>2014-05-26T01:42:12.056-07:00</when>
<gx:coord>-118.3621847 34.0697317 0</gx:coord>
<when>2014-05-26T01:46:09.237-07:00</when>
<gx:coord>-118.3621808 34.0697199 0</gx:coord>
<when>2014-05-26T01:52:54.105-07:00</when>
<gx:coord>-118.3621356 34.069724 0</gx:coord>
<when>2014-05-26T02:00:02.221-07:00</when>
<gx:coord>-118.3621836 34.0697247 0</gx:coord>
<when>2014-05-26T02:06:08.074-07:00</when>
<gx:coord>-118.3621837 34.0697299 0</gx:coord>
<when>2014-05-26T02:12:13.163-07:00</when>
<gx:coord>-118.3621868 34.0697327 0</gx:coord>
<when>2014-05-26T02:19:48.125-07:00</when>
<gx:coord>-118.362185 34.0697284 0</gx:coord>
<when>2014-05-26T02:26:09.069-07:00</when>
<gx:coord>-118.3621944 34.0697187 0</gx:coord>
<when>2014-05-26T02:31:12.088-07:00</when>
<gx:coord>-118.3621904 34.0697179 0</gx:coord>
<when>2014-05-26T02:36:09.229-07:00</when>
<gx:coord>-118.3621864 34.0697265 0</gx:coord>
<when>2014-05-26T02:41:10.129-07:00</when>
<gx:coord>-118.3621882 34.0697244 0</gx:coord>
<when>2014-05-26T02:46:10.105-07:00</when>
<gx:coord>-118.3621587 34.0697574 0</gx:coord>
<when>2014-05-26T02:53:42.076-07:00</when>
<gx:coord>-118.3621826 34.0697248 0</gx:coord>
<when>2014-05-26T03:00:02.071-07:00</when>
<gx:coord>-118.3621575 34.0697494 0</gx:coord>
<when>2014-05-26T03:06:10.077-07:00</when>
<gx:coord>-118.36216 34.0697585 0</gx:coord>
<when>2014-05-26T03:10:11.657-07:00</when>
<gx:coord>-118.3621573 34.0697509 0</gx:coord>
<when>2014-05-26T03:15:02.068-07:00</when>
<gx:coord>-118.3621836 34.069735 0</gx:coord>
<when>2014-05-26T03:19:49.067-07:00</when>
<gx:coord>-118.3621903 34.0697342 0</gx:coord>
<when>2014-05-26T03:26:10.105-07:00</when>
<gx:coord>-118.3621871 34.0697236 0</gx:coord>
<when>2014-05-26T03:31:50.210-07:00</when>
<gx:coord>-118.3621951 34.0697234 0</gx:coord>
<when>2014-05-26T03:36:52.084-07:00</when>
<gx:coord>-118.3621581 34.0697521 0</gx:coord>
<when>2014-05-26T03:41:37.067-07:00</when>
<gx:coord>-118.3621954 34.0697242 0</gx:coord>
<when>2014-05-26T03:46:22.132-07:00</when>
<gx:coord>-118.3621836 34.0697226 0</gx:coord>
<when>2014-05-26T03:53:41.243-07:00</when>
<gx:coord>-118.3621572 34.0697641 0</gx:coord>
<when>2014-05-26T03:58:26.322-07:00</when>
<gx:coord>-118.3621606 34.0697569 0</gx:coord>
<when>2014-05-26T04:03:12.089-07:00</when>
<gx:coord>-118.3621782 34.0697728 0</gx:coord>
<when>2014-05-26T04:06:12.282-07:00</when>
<gx:coord>-118.3621598 34.069757 0</gx:coord>
<when>2014-05-26T04:08:41.386-07:00</when>
<gx:coord>-118.3621571 34.0697574 0</gx:coord>
<when>2014-05-26T04:11:54.136-07:00</when>
<gx:coord>-118.3622073 34.0696372 40</gx:coord>
<when>2014-05-26T04:13:27.048-07:00</when>
<gx:coord>-118.362158 34.0697677 0</gx:coord>
<when>2014-05-26T04:19:11.355-07:00</when>
<gx:coord>-118.3621587 34.0697548 0</gx:coord>
<when>2014-05-26T04:24:07.073-07:00</when>
<gx:coord>-118.3621608 34.0697553 0</gx:coord>
<when>2014-05-26T04:30:03.169-07:00</when>
<gx:coord>-118.362157 34.0697574 0</gx:coord>
<when>2014-05-26T04:36:13.091-07:00</when>
<gx:coord>-118.3621569 34.0697613 0</gx:coord>
<when>2014-05-26T04:41:24.123-07:00</when>
<gx:coord>-118.3621599 34.0697632 0</gx:coord>
<when>2014-05-26T04:46:10.090-07:00</when>
<gx:coord>-118.3621587 34.0697607 0</gx:coord>
<when>2014-05-26T04:50:56.044-07:00</when>
<gx:coord>-118.3621587 34.0697607 0</gx:coord>
<when>2014-05-26T04:55:47.045-07:00</when>
<gx:coord>-118.3621587 34.0697616 0</gx:coord>
<when>2014-05-26T05:01:12.070-07:00</when>
<gx:coord>-118.3621568 34.0697558 0</gx:coord>
<when>2014-05-26T05:06:13.406-07:00</when>
<gx:coord>-118.3621574 34.0697594 0</gx:coord>
<when>2014-05-26T05:11:48.059-07:00</when>
<gx:coord>-118.3621571 34.069752 0</gx:coord>
<when>2014-05-26T05:13:55.067-07:00</when>
<gx:coord>-118.3621742 34.06977 0</gx:coord>
<when>2014-05-26T05:19:16.170-07:00</when>
<gx:coord>-118.3621866 34.0697319 0</gx:coord>
<when>2014-05-26T05:24:02.215-07:00</when>
<gx:coord>-118.3621198 34.0697666 0</gx:coord>
<when>2014-05-26T05:28:46.232-07:00</when>
<gx:coord>-118.3621657 34.069763 0</gx:coord>
<when>2014-05-26T05:33:32.371-07:00</when>
<gx:coord>-118.3621795 34.0697649 0</gx:coord>
<when>2014-05-26T05:38:41.195-07:00</when>
<gx:coord>-118.3621787 34.0697679 0</gx:coord>
<when>2014-05-26T05:45:03.069-07:00</when>
<gx:coord>-118.3621758 34.0697702 0</gx:coord>
<when>2014-05-26T05:50:03.360-07:00</when>
<gx:coord>-118.3621771 34.0697637 0</gx:coord>
<when>2014-05-26T05:55:47.050-07:00</when>
<gx:coord>-118.362176 34.0697697 0</gx:coord>
<when>2014-05-26T06:00:32.060-07:00</when>
<gx:coord>-118.3621755 34.0697679 0</gx:coord>
<when>2014-05-26T06:06:15.059-07:00</when>
<gx:coord>-118.3621755 34.0697679 0</gx:coord>
<when>2014-05-26T06:11:10.153-07:00</when>
<gx:coord>-118.3621771 34.0697649 0</gx:coord>
<when>2014-05-26T06:16:15.065-07:00</when>
<gx:coord>-118.3621594 34.0697535 0</gx:coord>
<when>2014-05-26T06:21:14.520-07:00</when>
<gx:coord>-118.3621847 34.0697324 0</gx:coord>
<when>2014-05-26T06:26:15.087-07:00</when>
<gx:coord>-118.3621602 34.0697522 0</gx:coord>
<when>2014-05-26T06:31:18.957-07:00</when>
<gx:coord>-118.3621872 34.069736 0</gx:coord>
<when>2014-05-26T06:32:10.806-07:00</when>
<gx:coord>-118.3621844 34.0697281 0</gx:coord>
<when>2014-05-26T06:37:20.323-07:00</when>
<gx:coord>-118.3621904 34.0697284 0</gx:coord>
<when>2014-05-26T06:42:32.261-07:00</when>
<gx:coord>-118.3621846 34.069733 0</gx:coord>
<when>2014-05-26T06:47:34.363-07:00</when>
<gx:coord>-118.3621802 34.0697636 0</gx:coord>
<when>2014-05-26T06:53:41.215-07:00</when>
<gx:coord>-118.3621833 34.0697351 0</gx:coord>
<when>2014-05-26T07:00:00.628-07:00</when>
<gx:coord>-118.3621813 34.0697665 0</gx:coord>
<when>2014-05-26T07:00:44.588-07:00</when>
<gx:coord>-118.3621761 34.0697661 0</gx:coord>
<when>2014-05-26T07:01:57.409-07:00</when>
<gx:coord>-118.3621807 34.0697669 0</gx:coord>
<when>2014-05-26T07:03:20.831-07:00</when>
<gx:coord>-118.3621837 34.0697753 0</gx:coord>
<when>2014-05-26T07:04:58.934-07:00</when>
<gx:coord>-118.3621587 34.0697484 0</gx:coord>
<when>2014-05-26T07:05:59.486-07:00</when>
<gx:coord>-118.362157 34.0697521 0</gx:coord>
<when>2014-05-26T07:06:59.932-07:00</when>
<gx:coord>-118.3621672 34.0697514 0</gx:coord>
<when>2014-05-26T07:08:00.470-07:00</when>
<gx:coord>-118.3621787 34.0697639 0</gx:coord>
<when>2014-05-26T07:09:00.968-07:00</when>
<gx:coord>-118.3621768 34.0697667 0</gx:coord>
<when>2014-05-26T07:10:01.438-07:00</when>
<gx:coord>-118.3621587 34.0697574 0</gx:coord>
<when>2014-05-26T07:15:00.644-07:00</when>
<gx:coord>-118.3621609 34.0697603 0</gx:coord>
<when>2014-05-26T07:16:15.399-07:00</when>
<gx:coord>-118.3621606 34.0697576 0</gx:coord>
<when>2014-05-26T07:17:21.346-07:00</when>
<gx:coord>-118.3621603 34.0697535 0</gx:coord>
<when>2014-05-26T07:18:51.451-07:00</when>
<gx:coord>-118.3621587 34.0697475 0</gx:coord>
<when>2014-05-26T07:20:06.687-07:00</when>
<gx:coord>-118.3621574 34.0697553 0</gx:coord>
<when>2014-05-26T07:21:07.158-07:00</when>
<gx:coord>-118.3621936 34.0697734 0</gx:coord>
<when>2014-05-26T07:22:07.663-07:00</when>
<gx:coord>-118.3621603 34.0697535 0</gx:coord>
<when>2014-05-26T07:23:08.330-07:00</when>
<gx:coord>-118.3621609 34.0697573 0</gx:coord>
<when>2014-05-26T07:24:08.768-07:00</when>
<gx:coord>-118.3621599 34.0697579 0</gx:coord>
<when>2014-05-26T07:25:09.401-07:00</when>
<gx:coord>-118.3621579 34.0697574 0</gx:coord>
<when>2014-05-26T07:26:09.921-07:00</when>
<gx:coord>-118.3621587 34.0697569 0</gx:coord>
<when>2014-05-26T07:30:16.586-07:00</when>
<gx:coord>-118.3621604 34.0697582 0</gx:coord>
<when>2014-05-26T07:31:21.737-07:00</when>
<gx:coord>-118.3621569 34.0697511 0</gx:coord>
<when>2014-05-26T07:32:21.942-07:00</when>
<gx:coord>-118.3621838 34.069735 0</gx:coord>
<when>2014-05-26T07:33:32.640-07:00</when>
<gx:coord>-118.3621452 34.0697415 0</gx:coord>
<when>2014-05-26T07:34:32.969-07:00</when>
<gx:coord>-118.3622001 34.0697174 0</gx:coord>
<when>2014-05-26T07:35:33.436-07:00</when>
<gx:coord>-118.3621793 34.0697277 0</gx:coord>
<when>2014-05-26T07:36:33.966-07:00</when>
<gx:coord>-118.3621814 34.0697302 0</gx:coord>
<when>2014-05-26T07:37:33.972-07:00</when>
<gx:coord>-118.3621721 34.0697375 0</gx:coord>
<when>2014-05-26T07:38:34.919-07:00</when>
<gx:coord>-118.3621627 34.069749 0</gx:coord>
<when>2014-05-26T07:39:35.397-07:00</when>
<gx:coord>-118.3621825 34.0697289 0</gx:coord>
<when>2014-05-26T07:40:35.872-07:00</when>
<gx:coord>-118.3622026 34.0697167 0</gx:coord>
<when>2014-05-26T07:45:20.124-07:00</when>
<gx:coord>-118.3621567 34.0697456 0</gx:coord>
<when>2014-05-26T07:46:20.119-07:00</when>
<gx:coord>-118.3621593 34.0697519 0</gx:coord>
<when>2014-05-26T07:47:20.145-07:00</when>
<gx:coord>-118.3621799 34.0697688 0</gx:coord>
<when>2014-05-26T07:48:20.120-07:00</when>
<gx:coord>-118.3621767 34.0697757 0</gx:coord>
<when>2014-05-26T07:49:20.130-07:00</when>
<gx:coord>-118.3621858 34.0697329 0</gx:coord>
<when>2014-05-26T07:50:20.138-07:00</when>
<gx:coord>-118.3621511 34.0697224 0</gx:coord>
<when>2014-05-26T07:51:20.131-07:00</when>
<gx:coord>-118.3621326 34.0697494 0</gx:coord>
<when>2014-05-26T07:52:20.128-07:00</when>
<gx:coord>-118.3621814 34.0697406 0</gx:coord>
<when>2014-05-26T07:53:20.197-07:00</when>
<gx:coord>-118.3621824 34.0697311 0</gx:coord>
<when>2014-05-26T07:54:20.160-07:00</when>
<gx:coord>-118.3621577 34.0697503 0</gx:coord>
<when>2014-05-26T07:55:20.159-07:00</when>
<gx:coord>-118.3621587 34.0697532 0</gx:coord>
<when>2014-05-26T07:56:20.166-07:00</when>
<gx:coord>-118.3621595 34.0697506 0</gx:coord>
<when>2014-05-26T07:57:20.176-07:00</when>
<gx:coord>-118.3621572 34.0697503 0</gx:coord>
<when>2014-05-26T07:58:20.212-07:00</when>
<gx:coord>-118.3621623 34.0697496 0</gx:coord>
<when>2014-05-26T07:59:20.234-07:00</when>
<gx:coord>-118.3621614 34.0697558 0</gx:coord>
<when>2014-05-26T08:00:20.262-07:00</when>
<gx:coord>-118.3621591 34.0697506 0</gx:coord>
<when>2014-05-26T08:01:49.317-07:00</when>
<gx:coord>-118.3621849 34.0697401 0</gx:coord>
<when>2014-05-26T08:03:00.745-07:00</when>
<gx:coord>-118.3621753 34.0697722 0</gx:coord>
<when>2014-05-26T08:04:30.873-07:00</when>
<gx:coord>-118.3621733 34.0697719 0</gx:coord>
<when>2014-05-26T08:05:48.823-07:00</when>
<gx:coord>-118.3621587 34.0697616 0</gx:coord>
<when>2014-05-26T08:06:49.486-07:00</when>
<gx:coord>-118.3621753 34.0697686 0</gx:coord>
<when>2014-05-26T08:07:50.116-07:00</when>
<gx:coord>-118.3622117 34.0697597 0</gx:coord>
<when>2014-05-26T08:08:50.140-07:00</when>
<gx:coord>-118.3621791 34.0697649 0</gx:coord>
<when>2014-05-26T08:09:51.183-07:00</when>
<gx:coord>-118.3621786 34.069767 0</gx:coord>
<when>2014-05-26T08:10:51.511-07:00</when>
<gx:coord>-118.3621566 34.0697642 0</gx:coord>
<when>2014-05-26T08:11:51.937-07:00</when>
<gx:coord>-118.3621914 34.0697747 0</gx:coord>
<when>2014-05-26T08:15:53.906-07:00</when>
<gx:coord>-118.3621605 34.0697609 0</gx:coord>
<when>2014-05-26T08:17:21.652-07:00</when>
<gx:coord>-118.3621793 34.0697732 0</gx:coord>
<when>2014-05-26T08:18:21.731-07:00</when>
<gx:coord>-118.3621904 34.0697509 0</gx:coord>
<when>2014-05-26T08:19:21.659-07:00</when>
<gx:coord>-118.3621851 34.0697328 0</gx:coord>
<when>2014-05-26T08:20:23.044-07:00</when>
<gx:coord>-118.3621998 34.0697894 0</gx:coord>
<when>2014-05-26T08:21:23.641-07:00</when>
<gx:coord>-118.3621925 34.0698011 0</gx:coord>
<when>2014-05-26T08:22:23.056-07:00</when>
<gx:coord>-118.3614366 34.0698546 0</gx:coord>
<when>2014-05-26T08:23:26.677-07:00</when>
<gx:coord>-118.3610684 34.0706248 0</gx:coord>
<when>2014-05-26T08:24:29.736-07:00</when>
<gx:coord>-118.3614699 34.0716403 0</gx:coord>
<when>2014-05-26T08:25:31.854-07:00</when>
<gx:coord>-118.3613779 34.0717149 0</gx:coord>
<when>2014-05-26T08:26:31.879-07:00</when>
<gx:coord>-118.3614429 34.0717252 0</gx:coord>
<when>2014-05-26T08:27:31.824-07:00</when>
<gx:coord>-118.361449 34.071715 0</gx:coord>
<when>2014-05-26T08:28:22.053-07:00</when>
<gx:coord>-118.3614825 34.0717154 0</gx:coord>
<when>2014-05-26T08:30:02.310-07:00</when>
<gx:coord>-118.3611244 34.0704313 0</gx:coord>
<when>2014-05-26T08:31:02.771-07:00</when>
<gx:coord>-118.3620839 34.0698757 0</gx:coord>
<when>2014-05-26T08:32:04.375-07:00</when>
<gx:coord>-118.3621833 34.0697933 0</gx:coord>
<when>2014-05-26T08:33:04.409-07:00</when>
<gx:coord>-118.3621741 34.0697652 0</gx:coord>
<when>2014-05-26T08:34:04.437-07:00</when>
<gx:coord>-118.3621771 34.0697673 0</gx:coord>
<when>2014-05-26T08:35:04.400-07:00</when>
<gx:coord>-118.3621743 34.0697637 0</gx:coord>
<when>2014-05-26T08:36:04.407-07:00</when>
<gx:coord>-118.3621816 34.0697769 0</gx:coord>
<when>2014-05-26T08:37:04.466-07:00</when>
<gx:coord>-118.3621754 34.0697657 0</gx:coord>
<when>2014-05-26T08:38:04.487-07:00</when>
<gx:coord>-118.3621762 34.0697722 0</gx:coord>
<when>2014-05-26T08:39:04.508-07:00</when>
<gx:coord>-118.3621772 34.0697614 0</gx:coord>
<when>2014-05-26T08:40:04.451-07:00</when>
<gx:coord>-118.3621737 34.0697716 0</gx:coord>
<when>2014-05-26T08:41:04.464-07:00</when>
<gx:coord>-118.3621766 34.0697658 0</gx:coord>
<when>2014-05-26T08:41:49.680-07:00</when>
<gx:coord>-118.3621861 34.0697768 0</gx:coord>
<when>2014-05-26T08:42:36.724-07:00</when>
<gx:coord>-118.3621851 34.0697728 0</gx:coord>
<when>2014-05-26T08:43:36.797-07:00</when>
<gx:coord>-118.3621776 34.0697677 0</gx:coord>
<when>2014-05-26T08:44:36.783-07:00</when>
<gx:coord>-118.3621739 34.069768 0</gx:coord>
<when>2014-05-26T08:45:40.987-07:00</when>
<gx:coord>-118.3621885 34.0697789 0</gx:coord>
<when>2014-05-26T08:47:30.663-07:00</when>
<gx:coord>-118.362188 34.0697749 0</gx:coord>
<when>2014-05-26T08:48:31.130-07:00</when>
<gx:coord>-118.3622065 34.0697897 0</gx:coord>
<when>2014-05-26T08:50:02.995-07:00</when>
<gx:coord>-118.3621952 34.0698598 0</gx:coord>
<when>2014-05-26T08:50:57.893-07:00</when>
<gx:coord>-118.3614301 34.0697193 0</gx:coord>
<when>2014-05-26T08:51:50.834-07:00</when>
<gx:coord>-118.3624503 34.0620947 61</gx:coord>
<when>2014-05-26T08:52:36.417-07:00</when>
<gx:coord>-118.3635138 34.0590354 12</gx:coord>
<when>2014-05-26T08:53:22.351-07:00</when>
<gx:coord>-118.3655051 34.0546614 9</gx:coord>
<when>2014-05-26T08:54:10.929-07:00</when>
<gx:coord>-118.3668127 34.0516323 14</gx:coord>
<when>2014-05-26T08:55:08.880-07:00</when>
<gx:coord>-118.3667075 34.0517053 0</gx:coord>
<when>2014-05-26T08:56:09.699-07:00</when>
<gx:coord>-118.3722336 34.039341 0</gx:coord>
<when>2014-05-26T08:57:10.565-07:00</when>
<gx:coord>-118.3790315 34.0346008 0</gx:coord>
<when>2014-05-26T08:58:11.270-07:00</when>
<gx:coord>-118.3878797 34.0297063 0</gx:coord>
<when>2014-05-26T08:59:11.629-07:00</when>
<gx:coord>-118.3921356 34.0272093 0</gx:coord>
<when>2014-05-26T09:00:11.343-07:00</when>
<gx:coord>-118.3950699 34.0239424 0</gx:coord>
<when>2014-05-26T09:01:02.839-07:00</when>
<gx:coord>-118.3950834 34.0239854 0</gx:coord>
<when>2014-05-26T09:01:49.786-07:00</when>
<gx:coord>-118.3950199 34.024594 0</gx:coord>
<when>2014-05-26T09:02:35.167-07:00</when>
<gx:coord>-118.3950699 34.0238929 -5</gx:coord>
<when>2014-05-26T09:03:41.694-07:00</when>
<gx:coord>-118.3942078 34.0243381 0</gx:coord>
<when>2014-05-26T09:04:52.123-07:00</when>
<gx:coord>-118.394245 34.0243081 0</gx:coord>
<when>2014-05-26T09:05:52.540-07:00</when>
<gx:coord>-118.3943091 34.0242853 0</gx:coord>
<when>2014-05-26T09:07:14.249-07:00</when>
<gx:coord>-118.3942623 34.0242947 0</gx:coord>
<when>2014-05-26T09:08:15.068-07:00</when>
<gx:coord>-118.3943168 34.0242846 0</gx:coord>
<when>2014-05-26T09:09:16.192-07:00</when>
<gx:coord>-118.394277 34.0243019 0</gx:coord>
<when>2014-05-26T09:10:17.084-07:00</when>
<gx:coord>-118.3943094 34.0242954 0</gx:coord>
<when>2014-05-26T09:11:17.479-07:00</when>
<gx:coord>-118.3942306 34.0242971 0</gx:coord>
<when>2014-05-26T09:12:17.420-07:00</when>
<gx:coord>-118.3942826 34.0242942 0</gx:coord>
<when>2014-05-26T09:13:17.497-07:00</when>
<gx:coord>-118.3942935 34.0243044 0</gx:coord>
<when>2014-05-26T09:14:35.031-07:00</when>
<gx:coord>-118.3942806 34.0242944 0</gx:coord>
<when>2014-05-26T09:19:20.247-07:00</when>
<gx:coord>-118.3942392 34.0243004 0</gx:coord>
<when>2014-05-26T09:24:15.189-07:00</when>
<gx:coord>-118.3942445 34.0243072 0</gx:coord>
<when>2014-05-26T09:30:02.108-07:00</when>
<gx:coord>-118.394288 34.0242905 0</gx:coord>
<when>2014-05-26T09:34:48.248-07:00</when>
<gx:coord>-118.3942531 34.0243092 0</gx:coord>
<when>2014-05-26T09:39:48.834-07:00</when>
<gx:coord>-118.3942476 34.0243194 0</gx:coord>
<when>2014-05-26T09:45:02.148-07:00</when>
<gx:coord>-118.3942936 34.024298 0</gx:coord>
<when>2014-05-26T09:49:20.177-07:00</when>
<gx:coord>-118.3942827 34.0243124 0</gx:coord>
<when>2014-05-26T09:50:21.242-07:00</when>
<gx:coord>-118.3943078 34.0242923 0</gx:coord>
<when>2014-05-26T09:51:21.313-07:00</when>
<gx:coord>-118.394284 34.024305 0</gx:coord>
<when>2014-05-26T09:52:22.171-07:00</when>
<gx:coord>-118.3943032 34.0243045 0</gx:coord>
<when>2014-05-26T09:53:22.494-07:00</when>
<gx:coord>-118.3942895 34.0242955 0</gx:coord>
<when>2014-05-26T09:54:23.062-07:00</when>
<gx:coord>-118.3943309 34.0243128 0</gx:coord>
<when>2014-05-26T09:55:24.187-07:00</when>
<gx:coord>-118.394302 34.0242962 0</gx:coord>
<when>2014-05-26T09:56:24.605-07:00</when>
<gx:coord>-118.394255 34.0243106 0</gx:coord>
<when>2014-05-26T09:57:25.020-07:00</when>
<gx:coord>-118.3943356 34.0243005 0</gx:coord>
<when>2014-05-26T09:58:25.215-07:00</when>
<gx:coord>-118.3942895 34.024293 0</gx:coord>
<when>2014-05-26T09:59:26.156-07:00</when>
<gx:coord>-118.3942877 34.0242966 0</gx:coord>
<when>2014-05-26T10:00:27.801-07:00</when>
<gx:coord>-118.3942864 34.0242977 0</gx:coord>
<when>2014-05-26T10:06:18.263-07:00</when>
<gx:coord>-118.3942715 34.0243118 0</gx:coord>
<when>2014-05-26T10:11:20.223-07:00</when>
<gx:coord>-118.3942763 34.0242977 0</gx:coord>
<when>2014-05-26T10:13:07.063-07:00</when>
<gx:coord>-118.3941646 34.0243184 0</gx:coord>
<when>2014-05-26T10:14:07.357-07:00</when>
<gx:coord>-118.3942954 34.0242001 0</gx:coord>
<when>2014-05-26T10:15:08.561-07:00</when>
<gx:coord>-118.3948933 34.0234975 0</gx:coord>
<when>2014-05-26T10:16:19.775-07:00</when>
<gx:coord>-118.3955842 34.0227949 0</gx:coord>
<when>2014-05-26T10:17:49.038-07:00</when>
<gx:coord>-118.3955855 34.0228025 0</gx:coord>
<when>2014-05-26T10:18:50.718-07:00</when>
<gx:coord>-118.3956342 34.0227886 0</gx:coord>
<when>2014-05-26T10:19:51.223-07:00</when>
<gx:coord>-118.3956271 34.0227756 0</gx:coord>
<when>2014-05-26T10:20:52.723-07:00</when>
<gx:coord>-118.3952181 34.0230164 0</gx:coord>
<when>2014-05-26T10:22:37.558-07:00</when>
<gx:coord>-118.3941904 34.0242841 0</gx:coord>
<when>2014-05-26T10:23:41.347-07:00</when>
<gx:coord>-118.3942695 34.0243151 0</gx:coord>
<when>2014-05-26T10:24:55.139-07:00</when>
<gx:coord>-118.3942569 34.0243071 0</gx:coord>
<when>2014-05-26T10:25:56.170-07:00</when>
<gx:coord>-118.3942528 34.0242986 0</gx:coord>
<when>2014-05-26T10:26:56.673-07:00</when>
<gx:coord>-118.3942688 34.0242989 0</gx:coord>
<when>2014-05-26T10:27:58.376-07:00</when>
<gx:coord>-118.3942827 34.0243026 0</gx:coord>
<when>2014-05-26T10:29:23.147-07:00</when>
<gx:coord>-118.3942994 34.0242991 0</gx:coord>
<when>2014-05-26T10:30:25.172-07:00</when>
<gx:coord>-118.3942736 34.0243005 0</gx:coord>
<when>2014-05-26T10:31:25.506-07:00</when>
<gx:coord>-118.3942767 34.0242865 0</gx:coord>
<when>2014-05-26T10:32:27.272-07:00</when>
<gx:coord>-118.3942609 34.0243028 0</gx:coord>
<when>2014-05-26T10:33:28.149-07:00</when>
<gx:coord>-118.3942276 34.0243195 0</gx:coord>
<when>2014-05-26T10:38:39.186-07:00</when>
<gx:coord>-118.3942483 34.0243056 0</gx:coord>
<when>2014-05-26T10:45:02.225-07:00</when>
<gx:coord>-118.3942514 34.0243173 0</gx:coord>
<when>2014-05-26T10:49:49.132-07:00</when>
<gx:coord>-118.3942624 34.0242964 0</gx:coord>
<when>2014-05-26T10:55:46.149-07:00</when>
<gx:coord>-118.394271 34.0243011 0</gx:coord>
<when>2014-05-26T11:00:47.195-07:00</when>
<gx:coord>-118.3942462 34.0243124 0</gx:coord>
<when>2014-05-26T11:05:33.136-07:00</when>
<gx:coord>-118.3942962 34.0242844 0</gx:coord>
<when>2014-05-26T11:10:18.149-07:00</when>
<gx:coord>-118.3942802 34.024306 0</gx:coord>
<when>2014-05-26T11:16:20.160-07:00</when>
<gx:coord>-118.3942859 34.0243156 0</gx:coord>
<when>2014-05-26T11:21:05.153-07:00</when>
<gx:coord>-118.394247 34.0242989 0</gx:coord>
<when>2014-05-26T11:24:35.465-07:00</when>
<gx:coord>-118.39427 34.0242969 0</gx:coord>
<when>2014-05-26T11:30:03.080-07:00</when>
<gx:coord>-118.3943107 34.0242804 0</gx:coord>
<when>2014-05-26T11:35:42.162-07:00</when>
<gx:coord>-118.394226 34.0242981 0</gx:coord>
<when>2014-05-26T11:40:27.215-07:00</when>
<gx:coord>-118.3942866 34.0242795 0</gx:coord>
<when>2014-05-26T11:46:22.143-07:00</when>
<gx:coord>-118.3942582 34.0242832 0</gx:coord>
<when>2014-05-26T11:53:42.140-07:00</when>
<gx:coord>-118.3942503 34.0243147 0</gx:coord>
<when>2014-05-26T12:00:03.427-07:00</when>
<gx:coord>-118.3942379 34.0243094 0</gx:coord>
<when>2014-05-26T12:04:49.244-07:00</when>
<gx:coord>-118.3942772 34.0243043 0</gx:coord>
<when>2014-05-26T12:09:50.198-07:00</when>
<gx:coord>-118.3942424 34.0243014 0</gx:coord>
<when>2014-05-26T12:13:22.495-07:00</when>
<gx:coord>-118.3942857 34.0242961 0</gx:coord>
<when>2014-05-26T12:15:02.164-07:00</when>
<gx:coord>-118.3942819 34.024308 0</gx:coord>
<when>2014-05-26T12:16:23.077-07:00</when>
<gx:coord>-118.3942704 34.0242938 0</gx:coord>
<when>2014-05-26T12:17:25.153-07:00</when>
<gx:coord>-118.3942508 34.0243026 0</gx:coord>
<when>2014-05-26T12:18:26.175-07:00</when>
<gx:coord>-118.3942814 34.0242964 0</gx:coord>
<when>2014-05-26T12:19:27.264-07:00</when>
<gx:coord>-118.3942836 34.0242886 0</gx:coord>
<when>2014-05-26T12:20:28.169-07:00</when>
<gx:coord>-118.3942726 34.0242983 0</gx:coord>
<when>2014-05-26T12:21:29.138-07:00</when>
<gx:coord>-118.3943014 34.0242932 0</gx:coord>
<when>2014-05-26T12:22:30.130-07:00</when>
<gx:coord>-118.394302 34.0242742 0</gx:coord>
<when>2014-05-26T12:23:31.295-07:00</when>
<gx:coord>-118.3942624 34.0242877 0</gx:coord>
<when>2014-05-26T12:24:32.093-07:00</when>
<gx:coord>-118.394304 34.0242802 0</gx:coord>
<when>2014-05-26T12:30:02.130-07:00</when>
<gx:coord>-118.3942618 34.0243062 0</gx:coord>
<when>2014-05-26T12:34:59.560-07:00</when>
<gx:coord>-118.3942826 34.0243004 0</gx:coord>
<when>2014-05-26T12:37:54.386-07:00</when>
<gx:coord>-118.3943662 34.0243257 0</gx:coord>
<when>2014-05-26T12:39:23.548-07:00</when>
<gx:coord>-118.3942178 34.0243122 0</gx:coord>
<when>2014-05-26T12:40:54.950-07:00</when>
<gx:coord>-118.3941512 34.024318 0</gx:coord>
<when>2014-05-26T12:41:53.989-07:00</when>
<gx:coord>-118.3931893 34.0248583 0</gx:coord>
<when>2014-05-26T12:42:54.479-07:00</when>
<gx:coord>-118.3931722 34.0248778 0</gx:coord>
<when>2014-05-26T12:43:57.627-07:00</when>
<gx:coord>-118.3931785 34.0251289 0</gx:coord>
<when>2014-05-26T12:45:49.030-07:00</when>
<gx:coord>-118.3931658 34.0251424 0</gx:coord>
<when>2014-05-26T12:46:48.268-07:00</when>
<gx:coord>-118.3931736 34.0251846 0</gx:coord>
<when>2014-05-26T12:47:59.393-07:00</when>
<gx:coord>-118.3931771 34.0251739 0</gx:coord>
<when>2014-05-26T12:49:00.302-07:00</when>
<gx:coord>-118.3931741 34.0251864 0</gx:coord>
<when>2014-05-26T12:50:01.256-07:00</when>
<gx:coord>-118.39317 34.0251958 0</gx:coord>
<when>2014-05-26T12:51:00.525-07:00</when>
<gx:coord>-118.3931859 34.0252015 0</gx:coord>
<when>2014-05-26T12:52:02.353-07:00</when>
<gx:coord>-118.3931698 34.0251694 0</gx:coord>
<when>2014-05-26T12:53:22.606-07:00</when>
<gx:coord>-118.39332 34.0250771 0</gx:coord>
<when>2014-05-26T12:54:23.447-07:00</when>
<gx:coord>-118.3940486 34.0257573 0</gx:coord>
<when>2014-05-26T12:55:46.401-07:00</when>
<gx:coord>-118.3933356 34.0250644 0</gx:coord>
<when>2014-05-26T12:56:46.834-07:00</when>
<gx:coord>-118.3937854 34.0247941 0</gx:coord>
<when>2014-05-26T12:57:47.642-07:00</when>
<gx:coord>-118.3938199 34.0247239 0</gx:coord>
<when>2014-05-26T12:58:48.607-07:00</when>
<gx:coord>-118.3942783 34.0242795 0</gx:coord>
<when>2014-05-26T13:00:01.759-07:00</when>
<gx:coord>-118.3943406 34.0242999 0</gx:coord>
<when>2014-05-26T13:01:14.260-07:00</when>
<gx:coord>-118.3942879 34.0242923 0</gx:coord>
<when>2014-05-26T13:02:15.172-07:00</when>
<gx:coord>-118.3942983 34.0243105 0</gx:coord>
<when>2014-05-26T13:03:17.284-07:00</when>
<gx:coord>-118.3943192 34.0243041 0</gx:coord>
<when>2014-05-26T13:04:22.264-07:00</when>
<gx:coord>-118.3942792 34.0243115 0</gx:coord>
<when>2014-05-26T13:05:23.245-07:00</when>
<gx:coord>-118.3942765 34.0242897 0</gx:coord>
<when>2014-05-26T13:06:24.175-07:00</when>
<gx:coord>-118.3942886 34.0242863 0</gx:coord>
<when>2014-05-26T13:07:25.197-07:00</when>
<gx:coord>-118.3942856 34.0243035 0</gx:coord>
<when>2014-05-26T13:08:26.139-07:00</when>
<gx:coord>-118.394285 34.0242989 0</gx:coord>
<when>2014-05-26T13:09:27.227-07:00</when>
<gx:coord>-118.394285 34.0242887 0</gx:coord>
<when>2014-05-26T13:10:28.200-07:00</when>
<gx:coord>-118.3943218 34.0243001 0</gx:coord>
<when>2014-05-26T13:16:14.241-07:00</when>
<gx:coord>-118.3942816 34.0243018 0</gx:coord>
<when>2014-05-26T13:17:15.130-07:00</when>
<gx:coord>-118.3942855 34.0243041 0</gx:coord>
<when>2014-05-26T13:18:16.193-07:00</when>
<gx:coord>-118.3942565 34.0242907 0</gx:coord>
<when>2014-05-26T13:19:17.197-07:00</when>
<gx:coord>-118.3942835 34.0242985 0</gx:coord>
<when>2014-05-26T13:20:17.521-07:00</when>
<gx:coord>-118.3942947 34.0243015 0</gx:coord>
<when>2014-05-26T13:21:18.137-07:00</when>
<gx:coord>-118.3942861 34.0242958 0</gx:coord>
<when>2014-05-26T13:22:18.483-07:00</when>
<gx:coord>-118.3943071 34.024297 0</gx:coord>
<when>2014-05-26T13:23:20.254-07:00</when>
<gx:coord>-118.3942952 34.0242964 0</gx:coord>
<when>2014-05-26T13:24:21.096-07:00</when>
<gx:coord>-118.3942709 34.0243084 0</gx:coord>
<when>2014-05-26T13:25:21.456-07:00</when>
<gx:coord>-118.3942892 34.0243015 0</gx:coord>
<when>2014-05-26T13:26:23.194-07:00</when>
<gx:coord>-118.3942694 34.02431 0</gx:coord>
<when>2014-05-26T13:27:23.524-07:00</when>
<gx:coord>-118.3943372 34.0242965 0</gx:coord>
<when>2014-05-26T13:33:37.189-07:00</when>
<gx:coord>-118.394273 34.0242925 0</gx:coord>
<when>2014-05-26T13:38:43.197-07:00</when>
<gx:coord>-118.3942702 34.0243154 0</gx:coord>
<when>2014-05-26T13:43:47.900-07:00</when>
<gx:coord>-118.3943067 34.0242996 0</gx:coord>
<when>2014-05-26T13:49:03.297-07:00</when>
<gx:coord>-118.3942384 34.0243161 0</gx:coord>
<when>2014-05-26T13:56:25.289-07:00</when>
<gx:coord>-118.3942653 34.024309 0</gx:coord>
<when>2014-05-26T14:04:04.152-07:00</when>
<gx:coord>-118.3943014 34.0242902 0</gx:coord>
<when>2014-05-26T14:08:50.156-07:00</when>
<gx:coord>-118.3942415 34.024302 0</gx:coord>
<when>2014-05-26T14:12:59.322-07:00</when>
<gx:coord>-118.394493 34.0243692 -18</gx:coord>
<when>2014-05-26T14:13:59.224-07:00</when>
<gx:coord>-118.3942736 34.0243028 0</gx:coord>
<when>2014-05-26T14:18:51.108-07:00</when>
<gx:coord>-118.3942551 34.0243032 0</gx:coord>
<when>2014-05-26T14:23:42.370-07:00</when>
<gx:coord>-118.3942534 34.0242934 0</gx:coord>
<when>2014-05-26T14:29:57.124-07:00</when>
<gx:coord>-118.3942665 34.0243125 0</gx:coord>
<when>2014-05-26T14:35:47.378-07:00</when>
<gx:coord>-118.3942819 34.0243218 0</gx:coord>
<when>2014-05-26T14:40:03.469-07:00</when>
<gx:coord>-118.3942549 34.0242967 0</gx:coord>
<when>2014-05-26T14:45:01.771-07:00</when>
<gx:coord>-118.3942732 34.0242993 0</gx:coord>
<when>2014-05-26T14:47:25.305-07:00</when>
<gx:coord>-118.3942485 34.0243004 0</gx:coord>
<when>2014-05-26T14:53:18.145-07:00</when>
<gx:coord>-118.3942646 34.0243099 0</gx:coord>
<when>2014-05-26T14:58:29.484-07:00</when>
<gx:coord>-118.3942572 34.0243256 0</gx:coord>
<when>2014-05-26T15:05:13.228-07:00</when>
<gx:coord>-118.3943184 34.0242932 0</gx:coord>
<when>2014-05-26T15:06:35.116-07:00</when>
<gx:coord>-118.3942737 34.0243072 0</gx:coord>
<when>2014-05-26T15:07:36.211-07:00</when>
<gx:coord>-118.3942795 34.0242975 0</gx:coord>
<when>2014-05-26T15:08:36.217-07:00</when>
<gx:coord>-118.3942714 34.0243019 0</gx:coord>
<when>2014-05-26T15:09:54.188-07:00</when>
<gx:coord>-118.3942692 34.0242917 0</gx:coord>
<when>2014-05-26T15:10:55.249-07:00</when>
<gx:coord>-118.3943028 34.024289 0</gx:coord>
<when>2014-05-26T15:11:56.199-07:00</when>
<gx:coord>-118.3942845 34.0242967 0</gx:coord>
<when>2014-05-26T15:12:56.447-07:00</when>
<gx:coord>-118.3943133 34.0242981 0</gx:coord>
<when>2014-05-26T15:13:57.164-07:00</when>
<gx:coord>-118.3942742 34.0242972 0</gx:coord>
<when>2014-05-26T15:14:57.407-07:00</when>
<gx:coord>-118.394313 34.024298 0</gx:coord>
<when>2014-05-26T15:15:58.128-07:00</when>
<gx:coord>-118.3942865 34.0243025 0</gx:coord>
<when>2014-05-26T15:21:39.232-07:00</when>
<gx:coord>-118.3942671 34.0242879 0</gx:coord>
<when>2014-05-26T15:25:49.572-07:00</when>
<gx:coord>-118.3942704 34.0243077 0</gx:coord>
<when>2014-05-26T15:27:07.147-07:00</when>
<gx:coord>-118.3942746 34.0243107 0</gx:coord>
<when>2014-05-26T15:28:08.142-07:00</when>
<gx:coord>-118.3943057 34.024309 0</gx:coord>
<when>2014-05-26T15:29:08.138-07:00</when>
<gx:coord>-118.3943046 34.0243051 0</gx:coord>
<when>2014-05-26T15:30:10.113-07:00</when>
<gx:coord>-118.3942938 34.0243125 0</gx:coord>
<when>2014-05-26T15:31:11.131-07:00</when>
<gx:coord>-118.3942938 34.0242932 0</gx:coord>
<when>2014-05-26T15:32:13.207-07:00</when>
<gx:coord>-118.3942706 34.0243072 0</gx:coord>
<when>2014-05-26T15:33:13.636-07:00</when>
<gx:coord>-118.3942795 34.024293 0</gx:coord>
<when>2014-05-26T15:34:14.161-07:00</when>
<gx:coord>-118.3942866 34.0243097 0</gx:coord>
<when>2014-05-26T15:35:15.198-07:00</when>
<gx:coord>-118.3942493 34.0242963 0</gx:coord>
<when>2014-05-26T15:36:16.084-07:00</when>
<gx:coord>-118.3943039 34.0242941 0</gx:coord>
<when>2014-05-26T15:40:51.350-07:00</when>
<gx:coord>-118.3942468 34.0243142 0</gx:coord>
<when>2014-05-26T15:46:29.235-07:00</when>
<gx:coord>-118.3942678 34.0242856 0</gx:coord>
<when>2014-05-26T15:51:14.278-07:00</when>
<gx:coord>-118.3942842 34.0242983 0</gx:coord>
<when>2014-05-26T15:56:29.283-07:00</when>
<gx:coord>-118.394271 34.0243171 0</gx:coord>
<when>2014-05-26T16:02:04.510-07:00</when>
<gx:coord>-118.3942843 34.0242987 0</gx:coord>
<when>2014-05-26T16:07:26.505-07:00</when>
<gx:coord>-118.394292 34.0242747 0</gx:coord>
<when>2014-05-26T16:12:12.171-07:00</when>
<gx:coord>-118.3942829 34.024307 0</gx:coord>
<when>2014-05-26T16:17:10.478-07:00</when>
<gx:coord>-118.3942815 34.0243065 0</gx:coord>
<when>2014-05-26T16:23:25.464-07:00</when>
<gx:coord>-118.3942743 34.0243066 0</gx:coord>
<when>2014-05-26T16:26:05.505-07:00</when>
<gx:coord>-118.3942676 34.0242846 0</gx:coord>
<when>2014-05-26T16:30:51.122-07:00</when>
<gx:coord>-118.3942724 34.0242972 0</gx:coord>
<when>2014-05-26T16:36:34.110-07:00</when>
<gx:coord>-118.3942682 34.024317 0</gx:coord>
<when>2014-05-26T16:41:33.143-07:00</when>
<gx:coord>-118.3942527 34.0242901 0</gx:coord>
<when>2014-05-26T16:46:34.101-07:00</when>
<gx:coord>-118.3942415 34.024293 0</gx:coord>
<when>2014-05-26T16:49:20.801-07:00</when>
<gx:coord>-118.3942562 34.0242953 0</gx:coord>
<when>2014-05-26T16:54:06.186-07:00</when>
<gx:coord>-118.3942994 34.0243054 0</gx:coord>
<when>2014-05-26T17:00:03.133-07:00</when>
<gx:coord>-118.3942924 34.0243011 0</gx:coord>
<when>2014-05-26T17:06:35.195-07:00</when>
<gx:coord>-118.3942875 34.024303 0</gx:coord>
<when>2014-05-26T17:10:35.532-07:00</when>
<gx:coord>-118.3942792 34.0242949 0</gx:coord>
<when>2014-05-26T17:15:48.108-07:00</when>
<gx:coord>-118.3942714 34.0242972 0</gx:coord>
<when>2014-05-26T17:22:39.232-07:00</when>
<gx:coord>-118.3942535 34.0242938 0</gx:coord>
<when>2014-05-26T17:27:37.696-07:00</when>
<gx:coord>-118.3942432 34.0243196 0</gx:coord>
<when>2014-05-26T17:30:15.477-07:00</when>
<gx:coord>-118.3943075 34.0242973 0</gx:coord>
<when>2014-05-26T17:32:00.190-07:00</when>
<gx:coord>-118.3945636 34.0238872 0</gx:coord>
<when>2014-05-26T17:33:02.561-07:00</when>
<gx:coord>-118.3954316 34.0248671 0</gx:coord>
<when>2014-05-26T17:34:03.318-07:00</when>
<gx:coord>-118.3953142 34.0247217 0</gx:coord>
<when>2014-05-26T17:36:14.286-07:00</when>
<gx:coord>-118.3914729 34.0274402 0</gx:coord>
<when>2014-05-26T17:37:16.064-07:00</when>
<gx:coord>-118.3824488 34.0325552 0</gx:coord>
<when>2014-05-26T17:38:16.604-07:00</when>
<gx:coord>-118.3750213 34.0371133 0</gx:coord>
<when>2014-05-26T17:39:16.913-07:00</when>
<gx:coord>-118.3696124 34.0397005 0</gx:coord>
<when>2014-05-26T17:40:17.681-07:00</when>
<gx:coord>-118.3690831 34.043149 0</gx:coord>
<when>2014-05-26T17:41:17.807-07:00</when>
<gx:coord>-118.3666665 34.0517382 0</gx:coord>
<when>2014-05-26T17:42:18.739-07:00</when>
<gx:coord>-118.3657439 34.0539976 0</gx:coord>
<when>2014-05-26T17:43:18.896-07:00</when>
<gx:coord>-118.3635502 34.0581735 0</gx:coord>
<when>2014-05-26T17:44:19.672-07:00</when>
<gx:coord>-118.3616737 34.0631314 0</gx:coord>
<when>2014-05-26T17:45:20.329-07:00</when>
<gx:coord>-118.361464 34.0696179 0</gx:coord>
<when>2014-05-26T17:46:21.199-07:00</when>
<gx:coord>-118.3621666 34.069814 0</gx:coord>
<when>2014-05-26T17:47:21.111-07:00</when>
<gx:coord>-118.3622352 34.0697971 0</gx:coord>
<when>2014-05-26T17:48:06.232-07:00</when>
<gx:coord>-118.3620944 34.0697281 -2</gx:coord>
<when>2014-05-26T17:49:43.139-07:00</when>
<gx:coord>-118.3621614 34.0697619 0</gx:coord>
<when>2014-05-26T17:50:50.902-07:00</when>
<gx:coord>-118.3621621 34.0697554 0</gx:coord>
<when>2014-05-26T17:51:51.408-07:00</when>
<gx:coord>-118.3621614 34.0697669 0</gx:coord>
<when>2014-05-26T17:52:52.111-07:00</when>
<gx:coord>-118.3621602 34.0697614 0</gx:coord>
<when>2014-05-26T17:53:52.143-07:00</when>
<gx:coord>-118.3621602 34.0697614 0</gx:coord>
<when>2014-05-26T17:54:54.141-07:00</when>
<gx:coord>-118.3621858 34.0697734 0</gx:coord>
<when>2014-05-26T17:55:55.095-07:00</when>
<gx:coord>-118.3621822 34.0697794 0</gx:coord>
<when>2014-05-26T17:56:55.633-07:00</when>
<gx:coord>-118.3621625 34.0697667 0</gx:coord>
<when>2014-05-26T17:57:56.269-07:00</when>
<gx:coord>-118.3621614 34.0697672 0</gx:coord>
<when>2014-05-26T17:58:56.721-07:00</when>
<gx:coord>-118.3621565 34.0697604 0</gx:coord>
<when>2014-05-26T17:59:57.314-07:00</when>
<gx:coord>-118.3621844 34.0697716 0</gx:coord>
<when>2014-05-26T18:02:29.164-07:00</when>
<gx:coord>-118.3621866 34.069768 0</gx:coord>
<when>2014-05-26T18:08:42.068-07:00</when>
<gx:coord>-118.3621621 34.069759 0</gx:coord>
<when>2014-05-26T18:15:02.098-07:00</when>
<gx:coord>-118.3621828 34.0697539 0</gx:coord>
<when>2014-05-26T18:20:21.060-07:00</when>
<gx:coord>-118.3621621 34.0697584 0</gx:coord>
<when>2014-05-26T18:24:43.171-07:00</when>
<gx:coord>-118.3621587 34.0697608 0</gx:coord>
<when>2014-05-26T18:26:00.187-07:00</when>
<gx:coord>-118.3621905 34.0697237 0</gx:coord>
<when>2014-05-26T18:27:00.835-07:00</when>
<gx:coord>-118.3621862 34.0697525 0</gx:coord>
<when>2014-05-26T18:28:01.299-07:00</when>
<gx:coord>-118.3621603 34.069744 0</gx:coord>
<when>2014-05-26T18:29:01.789-07:00</when>
<gx:coord>-118.3621976 34.0697296 0</gx:coord>
<when>2014-05-26T18:30:02.276-07:00</when>
<gx:coord>-118.3621605 34.0697535 0</gx:coord>
<when>2014-05-26T18:31:03.156-07:00</when>
<gx:coord>-118.3621608 34.0697579 0</gx:coord>
<when>2014-05-26T18:31:54.455-07:00</when>
<gx:coord>-118.3621611 34.0697599 0</gx:coord>
<when>2014-05-26T18:32:55.534-07:00</when>
<gx:coord>-118.3621878 34.069772 0</gx:coord>
<when>2014-05-26T18:34:03.105-07:00</when>
<gx:coord>-118.362183 34.0697295 0</gx:coord>
<when>2014-05-26T18:35:31.901-07:00</when>
<gx:coord>-118.3621791 34.0698643 0</gx:coord>
<when>2014-05-26T18:37:20.568-07:00</when>
<gx:coord>-118.3622092 34.0698122 0</gx:coord>
<when>2014-05-26T18:38:42.148-07:00</when>
<gx:coord>-118.3622037 34.0697275 0</gx:coord>
<when>2014-05-26T18:40:20.317-07:00</when>
<gx:coord>-118.3621892 34.0697772 0</gx:coord>
<when>2014-05-26T18:41:20.581-07:00</when>
<gx:coord>-118.3622166 34.0698168 0</gx:coord>
<when>2014-05-26T18:42:21.099-07:00</when>
<gx:coord>-118.3621877 34.0697842 0</gx:coord>
<when>2014-05-26T18:43:22.125-07:00</when>
<gx:coord>-118.3621703 34.0697971 0</gx:coord>
<when>2014-05-26T18:44:22.663-07:00</when>
<gx:coord>-118.362182 34.0697766 0</gx:coord>
<when>2014-05-26T18:45:23.134-07:00</when>
<gx:coord>-118.3621927 34.0697704 0</gx:coord>
<when>2014-05-26T18:46:24.130-07:00</when>
<gx:coord>-118.3621877 34.0697797 0</gx:coord>
<when>2014-05-26T18:47:24.693-07:00</when>
<gx:coord>-118.3621602 34.0697682 0</gx:coord>
<when>2014-05-26T18:48:25.113-07:00</when>
<gx:coord>-118.3622473 34.0697229 0</gx:coord>
<when>2014-05-26T18:49:25.538-07:00</when>
<gx:coord>-118.3621624 34.069746 0</gx:coord>
<when>2014-05-26T18:50:26.141-07:00</when>
<gx:coord>-118.3621869 34.0697771 0</gx:coord>
<when>2014-05-26T18:51:26.686-07:00</when>
<gx:coord>-118.3621624 34.0697609 0</gx:coord>
<when>2014-05-26T18:52:28.112-07:00</when>
<gx:coord>-118.3621889 34.0697764 0</gx:coord>
<when>2014-05-26T18:53:28.690-07:00</when>
<gx:coord>-118.3621857 34.0697688 0</gx:coord>
<when>2014-05-26T18:54:25.476-07:00</when>
<gx:coord>-118.3621458 34.0697686 0</gx:coord>
<when>2014-05-26T18:55:24.477-07:00</when>
<gx:coord>-118.3621853 34.0698102 0</gx:coord>
<when>2014-05-26T18:56:47.102-07:00</when>
<gx:coord>-118.362142 34.0697924 0</gx:coord>
<when>2014-05-26T18:57:37.340-07:00</when>
<gx:coord>-118.3621837 34.0697682 0</gx:coord>
<when>2014-05-26T18:58:40.103-07:00</when>
<gx:coord>-118.3621896 34.0697797 0</gx:coord>
<when>2014-05-26T19:00:01.118-07:00</when>
<gx:coord>-118.3621851 34.0697785 0</gx:coord>
<when>2014-05-26T19:01:07.130-07:00</when>
<gx:coord>-118.362189 34.0697558 0</gx:coord>
<when>2014-05-26T19:02:27.898-07:00</when>
<gx:coord>-118.3622021 34.0697635 0</gx:coord>
<when>2014-05-26T19:03:38.153-07:00</when>
<gx:coord>-118.3621851 34.0697578 0</gx:coord>
<when>2014-05-26T19:04:38.504-07:00</when>
<gx:coord>-118.3621883 34.0697556 0</gx:coord>
<when>2014-05-26T19:05:39.168-07:00</when>
<gx:coord>-118.3621699 34.0697568 0</gx:coord>
<when>2014-05-26T19:06:40.101-07:00</when>
<gx:coord>-118.3621902 34.0697721 0</gx:coord>
<when>2014-05-26T19:07:41.114-07:00</when>
<gx:coord>-118.3621832 34.0697549 0</gx:coord>
<when>2014-05-26T19:08:42.142-07:00</when>
<gx:coord>-118.3621714 34.0697665 0</gx:coord>
<when>2014-05-26T19:09:42.472-07:00</when>
<gx:coord>-118.3621629 34.069771 0</gx:coord>
<when>2014-05-26T19:10:44.176-07:00</when>
<gx:coord>-118.3621662 34.0697603 0</gx:coord>
<when>2014-05-26T19:11:45.211-07:00</when>
<gx:coord>-118.3621873 34.0697601 0</gx:coord>
<when>2014-05-26T19:12:45.670-07:00</when>
<gx:coord>-118.3621964 34.0697937 0</gx:coord>
<when>2014-05-26T19:13:47.163-07:00</when>
<gx:coord>-118.3621748 34.0697624 0</gx:coord>
<when>2014-05-26T19:14:47.862-07:00</when>
<gx:coord>-118.3621953 34.0697586 0</gx:coord>
<when>2014-05-26T19:16:42.099-07:00</when>
<gx:coord>-118.3621841 34.0697682 0</gx:coord>
<when>2014-05-26T19:17:51.115-07:00</when>
<gx:coord>-118.3621699 34.0697553 0</gx:coord>
<when>2014-05-26T19:18:51.580-07:00</when>
<gx:coord>-118.3621657 34.069767 0</gx:coord>
<when>2014-05-26T19:19:52.131-07:00</when>
<gx:coord>-118.3621917 34.0697771 0</gx:coord>
<when>2014-05-26T19:20:52.412-07:00</when>
<gx:coord>-118.3621863 34.0697707 0</gx:coord>
<when>2014-05-26T19:21:52.386-07:00</when>
<gx:coord>-118.3621954 34.0697787 0</gx:coord>
<when>2014-05-26T19:22:52.416-07:00</when>
<gx:coord>-118.3621866 34.0697732 0</gx:coord>
<when>2014-05-26T19:23:52.645-07:00</when>
<gx:coord>-118.3621877 34.0697667 0</gx:coord>
<when>2014-05-26T19:24:52.658-07:00</when>
<gx:coord>-118.3621816 34.069759 0</gx:coord>
<when>2014-05-26T19:25:52.630-07:00</when>
<gx:coord>-118.3621859 34.069752 0</gx:coord>
<when>2014-05-26T19:26:52.653-07:00</when>
<gx:coord>-118.3621833 34.0697568 0</gx:coord>
<when>2014-05-26T19:27:52.619-07:00</when>
<gx:coord>-118.3621866 34.069763 0</gx:coord>
<when>2014-05-26T19:28:52.690-07:00</when>
<gx:coord>-118.3621852 34.0697593 0</gx:coord>
<when>2014-05-26T19:29:52.641-07:00</when>
<gx:coord>-118.3621854 34.0697592 0</gx:coord>
<when>2014-05-26T19:30:52.734-07:00</when>
<gx:coord>-118.3621846 34.0697622 0</gx:coord>
<when>2014-05-26T19:32:19.406-07:00</when>
<gx:coord>-118.3621914 34.0697648 0</gx:coord>
<when>2014-05-26T19:33:19.421-07:00</when>
<gx:coord>-118.362185 34.0697785 0</gx:coord>
<when>2014-05-26T19:34:19.406-07:00</when>
<gx:coord>-118.3621801 34.0697604 0</gx:coord>
<when>2014-05-26T19:35:19.408-07:00</when>
<gx:coord>-118.3621827 34.0697551 0</gx:coord>
<when>2014-05-26T19:36:42.157-07:00</when>
<gx:coord>-118.3621891 34.0697748 0</gx:coord>
<when>2014-05-26T19:37:44.107-07:00</when>
<gx:coord>-118.3621816 34.069772 0</gx:coord>
<when>2014-05-26T19:38:44.138-07:00</when>
<gx:coord>-118.3621882 34.0697845 0</gx:coord>
<when>2014-05-26T19:44:29.141-07:00</when>
<gx:coord>-118.3621956 34.0697597 0</gx:coord>
<when>2014-05-26T19:49:45.429-07:00</when>
<gx:coord>-118.3621857 34.0697738 0</gx:coord>
<when>2014-05-26T19:54:31.066-07:00</when>
<gx:coord>-118.3621898 34.0697851 0</gx:coord>
<when>2014-05-26T19:59:59.027-07:00</when>
<gx:coord>-118.3621819 34.0697725 0</gx:coord>
<when>2014-05-26T20:04:40.258-07:00</when>
<gx:coord>-118.3621803 34.0697682 0</gx:coord>
<when>2014-05-26T20:05:40.274-07:00</when>
<gx:coord>-118.3621783 34.0697547 0</gx:coord>
<when>2014-05-26T20:06:42.193-07:00</when>
<gx:coord>-118.3621923 34.0697709 0</gx:coord>
<when>2014-05-26T20:07:44.178-07:00</when>
<gx:coord>-118.3621941 34.0697605 0</gx:coord>
<when>2014-05-26T20:08:44.326-07:00</when>
<gx:coord>-118.3622003 34.0697627 0</gx:coord>
<when>2014-05-26T20:09:44.860-07:00</when>
<gx:coord>-118.3621858 34.0697555 0</gx:coord>
<when>2014-05-26T20:10:45.454-07:00</when>
<gx:coord>-118.3621721 34.0697606 0</gx:coord>
<when>2014-05-26T20:11:47.200-07:00</when>
<gx:coord>-118.3621807 34.0697526 0</gx:coord>
<when>2014-05-26T20:12:47.480-07:00</when>
<gx:coord>-118.3621871 34.0697685 0</gx:coord>
<when>2014-05-26T20:13:48.141-07:00</when>
<gx:coord>-118.3621847 34.0697643 0</gx:coord>
<when>2014-05-26T20:14:48.691-07:00</when>
<gx:coord>-118.3621862 34.0697701 0</gx:coord>
<when>2014-05-26T20:15:49.093-07:00</when>
<gx:coord>-118.3621802 34.0697734 0</gx:coord>
<when>2014-05-26T20:16:49.552-07:00</when>
<gx:coord>-118.3621899 34.0697558 0</gx:coord>
<when>2014-05-26T20:21:49.631-07:00</when>
<gx:coord>-118.3621657 34.0697673 0</gx:coord>
<when>2014-05-26T20:26:43.137-07:00</when>
<gx:coord>-118.3621891 34.0697605 0</gx:coord>
<when>2014-05-26T20:31:34.106-07:00</when>
<gx:coord>-118.3621846 34.06976 0</gx:coord>
<when>2014-05-26T20:35:49.334-07:00</when>
<gx:coord>-118.3621699 34.0697595 0</gx:coord>
<when>2014-05-26T20:40:34.324-07:00</when>
<gx:coord>-118.3621787 34.0697522 0</gx:coord>
<when>2014-05-26T20:45:37.528-07:00</when>
<gx:coord>-118.3621884 34.0697551 0</gx:coord>
<when>2014-05-26T20:50:50.811-07:00</when>
<gx:coord>-118.3621857 34.0697505 0</gx:coord>
<when>2014-05-26T20:55:47.113-07:00</when>
<gx:coord>-118.3621699 34.0697612 0</gx:coord>
<when>2014-05-26T21:00:44.574-07:00</when>
<gx:coord>-118.3621686 34.0697637 0</gx:coord>
<when>2014-05-26T21:06:19.124-07:00</when>
<gx:coord>-118.3621901 34.0697584 0</gx:coord>
<when>2014-05-26T21:08:43.056-07:00</when>
<gx:coord>-118.3621645 34.0697595 0</gx:coord>
<when>2014-05-26T21:10:19.646-07:00</when>
<gx:coord>-118.3621849 34.0697503 0</gx:coord>
<when>2014-05-26T21:11:20.002-07:00</when>
<gx:coord>-118.3621651 34.0697624 0</gx:coord>
<when>2014-05-26T21:12:20.545-07:00</when>
<gx:coord>-118.3621831 34.0697598 0</gx:coord>
<when>2014-05-26T21:13:20.935-07:00</when>
<gx:coord>-118.3621699 34.0697594 0</gx:coord>
<when>2014-05-26T21:14:21.301-07:00</when>
<gx:coord>-118.3621657 34.0697606 0</gx:coord>
<when>2014-05-26T21:15:21.757-07:00</when>
<gx:coord>-118.3621662 34.0697594 0</gx:coord>
<when>2014-05-26T21:16:23.213-07:00</when>
<gx:coord>-118.3621882 34.0697553 0</gx:coord>
<when>2014-05-26T21:17:24.203-07:00</when>
<gx:coord>-118.3621846 34.0697568 0</gx:coord>
<when>2014-05-26T21:18:25.125-07:00</when>
<gx:coord>-118.3621699 34.0697598 0</gx:coord>
<when>2014-05-26T21:19:49.116-07:00</when>
<gx:coord>-118.3621774 34.0697508 0</gx:coord>
<when>2014-05-26T21:20:49.143-07:00</when>
<gx:coord>-118.3621835 34.0697563 0</gx:coord>
<when>2014-05-26T21:21:49.104-07:00</when>
<gx:coord>-118.3621824 34.0697534 0</gx:coord>
<when>2014-05-26T21:22:49.211-07:00</when>
<gx:coord>-118.3621906 34.0697636 0</gx:coord>
<when>2014-05-26T21:23:49.134-07:00</when>
<gx:coord>-118.362189 34.0697579 0</gx:coord>
<when>2014-05-26T21:24:49.187-07:00</when>
<gx:coord>-118.3621848 34.0697546 0</gx:coord>
<when>2014-05-26T21:25:49.197-07:00</when>
<gx:coord>-118.3621873 34.0697706 0</gx:coord>
<when>2014-05-26T21:26:49.181-07:00</when>
<gx:coord>-118.3621808 34.0697543 0</gx:coord>
<when>2014-05-26T21:27:52.814-07:00</when>
<gx:coord>-118.3621963 34.0697621 0</gx:coord>
<when>2014-05-26T21:28:54.212-07:00</when>
<gx:coord>-118.3621854 34.069757 0</gx:coord>
<when>2014-05-26T21:29:56.113-07:00</when>
<gx:coord>-118.3621913 34.0697647 0</gx:coord>
<when>2014-05-26T21:30:57.184-07:00</when>
<gx:coord>-118.3621933 34.0697798 0</gx:coord>
<when>2014-05-26T21:31:58.143-07:00</when>
<gx:coord>-118.3621953 34.0697749 0</gx:coord>
<when>2014-05-26T21:32:47.192-07:00</when>
<gx:coord>-118.3621876 34.0697844 0</gx:coord>
<when>2014-05-26T21:33:50.104-07:00</when>
<gx:coord>-118.3621853 34.0697611 0</gx:coord>
<when>2014-05-26T21:35:26.585-07:00</when>
<gx:coord>-118.36219 34.0697706 0</gx:coord>
<when>2014-05-26T21:36:27.175-07:00</when>
<gx:coord>-118.3621799 34.0697781 0</gx:coord>
<when>2014-05-26T21:37:29.183-07:00</when>
<gx:coord>-118.3621896 34.0697671 0</gx:coord>
<when>2014-05-26T21:44:20.627-07:00</when>
<gx:coord>-118.362191 34.0697588 0</gx:coord>
<when>2014-05-26T21:49:49.438-07:00</when>
<gx:coord>-118.3621963 34.0697707 0</gx:coord>
<when>2014-05-26T21:52:15.584-07:00</when>
<gx:coord>-118.3621896 34.0697836 0</gx:coord>
<when>2014-05-26T21:53:43.061-07:00</when>
<gx:coord>-118.3621175 34.0697794 0</gx:coord>
<when>2014-05-26T21:54:45.090-07:00</when>
<gx:coord>-118.3621939 34.0697833 0</gx:coord>
<when>2014-05-26T21:55:45.088-07:00</when>
<gx:coord>-118.3622079 34.0697351 0</gx:coord>
<when>2014-05-26T21:56:45.090-07:00</when>
<gx:coord>-118.362184 34.0697451 0</gx:coord>
<when>2014-05-26T21:57:45.106-07:00</when>
<gx:coord>-118.3621594 34.069763 0</gx:coord>
<when>2014-05-26T21:58:45.124-07:00</when>
<gx:coord>-118.3621832 34.0697382 0</gx:coord>
<when>2014-05-26T21:59:44.545-07:00</when>
<gx:coord>-118.3621587 34.0697586 0</gx:coord>
<when>2014-05-26T22:00:46.133-07:00</when>
<gx:coord>-118.3621573 34.0697593 0</gx:coord>
<when>2014-05-26T22:01:48.063-07:00</when>
<gx:coord>-118.3621814 34.0697383 0</gx:coord>
<when>2014-05-26T22:02:49.090-07:00</when>
<gx:coord>-118.3621587 34.0697623 0</gx:coord>
<when>2014-05-26T22:04:20.066-07:00</when>
<gx:coord>-118.3621597 34.069762 0</gx:coord>
<when>2014-05-26T22:05:21.092-07:00</when>
<gx:coord>-118.3621587 34.0697665 0</gx:coord>
<when>2014-05-26T22:06:22.346-07:00</when>
<gx:coord>-118.3621572 34.0697618 0</gx:coord>
<when>2014-05-26T22:10:00.120-07:00</when>
<gx:coord>-118.3621958 34.0697415 0</gx:coord>
<when>2014-05-26T22:11:00.158-07:00</when>
<gx:coord>-118.3621946 34.0697461 0</gx:coord>
<when>2014-05-26T22:12:00.971-07:00</when>
<gx:coord>-118.3621826 34.0697339 0</gx:coord>
<when>2014-05-26T22:13:03.154-07:00</when>
<gx:coord>-118.3621856 34.06973 0</gx:coord>
<when>2014-05-26T22:14:04.232-07:00</when>
<gx:coord>-118.3621825 34.0697281 0</gx:coord>
<when>2014-05-26T22:15:05.220-07:00</when>
<gx:coord>-118.3621838 34.0697315 0</gx:coord>
<when>2014-05-26T22:16:06.124-07:00</when>
<gx:coord>-118.3621844 34.0697305 0</gx:coord>
<when>2014-05-26T22:17:07.100-07:00</when>
<gx:coord>-118.3621829 34.0697293 0</gx:coord>
<when>2014-05-26T22:18:08.070-07:00</when>
<gx:coord>-118.3622051 34.0697325 0</gx:coord>
<when>2014-05-26T22:19:09.132-07:00</when>
<gx:coord>-118.3621855 34.0697301 0</gx:coord>
<when>2014-05-26T22:20:10.167-07:00</when>
<gx:coord>-118.3621618 34.0697631 0</gx:coord>
<when>2014-05-26T22:21:10.310-07:00</when>
<gx:coord>-118.3621628 34.069748 0</gx:coord>
<when>2014-05-26T22:22:11.081-07:00</when>
<gx:coord>-118.3621953 34.0697322 0</gx:coord>
<when>2014-05-26T22:26:56.105-07:00</when>
<gx:coord>-118.3621618 34.0697631 0</gx:coord>
<when>2014-05-26T22:32:04.091-07:00</when>
<gx:coord>-118.3621628 34.069748 0</gx:coord>
<when>2014-05-26T22:33:06.005-07:00</when>
<gx:coord>-118.3621614 34.0697475 0</gx:coord>
<when>2014-05-26T22:37:51.072-07:00</when>
<gx:coord>-118.3621628 34.069748 0</gx:coord>
<when>2014-05-26T22:42:37.078-07:00</when>
<gx:coord>-118.3621855 34.0697301 0</gx:coord>
<when>2014-05-26T22:48:17.086-07:00</when>
<gx:coord>-118.3621884 34.0697349 0</gx:coord>
<when>2014-05-26T22:53:43.087-07:00</when>
<gx:coord>-118.3621884 34.0697349 0</gx:coord>
<when>2014-05-26T22:59:08.472-07:00</when>
<gx:coord>-118.3621855 34.0697313 0</gx:coord>
<when>2014-05-26T23:02:57.133-07:00</when>
<gx:coord>-118.3621965 34.0697391 0</gx:coord>
<when>2014-05-26T23:07:42.194-07:00</when>
<gx:coord>-118.3622046 34.0697278 0</gx:coord>
<when>2014-05-26T23:12:27.200-07:00</when>
<gx:coord>-118.3621749 34.0697696 0</gx:coord>
<when>2014-05-26T23:17:12.269-07:00</when>
<gx:coord>-118.3621577 34.0697508 0</gx:coord>
<when>2014-05-26T23:21:57.213-07:00</when>
<gx:coord>-118.3621628 34.069748 0</gx:coord>
<when>2014-05-26T23:26:42.280-07:00</when>
<gx:coord>-118.3621812 34.0697331 0</gx:coord>
<when>2014-05-26T23:31:27.256-07:00</when>
<gx:coord>-118.3621924 34.0697569 0</gx:coord>
<when>2014-05-26T23:36:46.330-07:00</when>
<gx:coord>-118.3621839 34.0697295 0</gx:coord>
<when>2014-05-26T23:41:31.351-07:00</when>
<gx:coord>-118.3621792 34.0697318 0</gx:coord>
<when>2014-05-26T23:46:16.411-07:00</when>
<gx:coord>-118.3621618 34.0697631 0</gx:coord>
<when>2014-05-26T23:51:01.421-07:00</when>
<gx:coord>-118.3621928 34.0697411 0</gx:coord>
<when>2014-05-26T23:56:30.638-07:00</when>
<gx:coord>-118.3621856 34.0697481 0</gx:coord>
</gx:Track>
</Placemark>
</Document>
</kml>
